…
The letters dataset is a simple dataframe. Each row represents a letter record, and has a unique ID. Essentially, each row is a record of who the author and recipient of the letter. Each of these senders and recipients also have both a unique ID, and the original name of the letter writer and sender. The unique ID is used because it's quite likely that the names are not unique, and the network could combine two nodes with the same name together, for example.

This is used to construct an edge list. If you have multiple letters between individuals, you can count them and use as a weight in the network, or you can ignore it. This is done with `tidyverse` commands we learned previously: `group_by()` and `tally()`, changing the name of the new column to 'weight'.


```r
edge_list = letters %>% 
  group_by(from_id, to_id) %>% 
  tally(name = 'weight')

edge_list
```

```
## # A tibble: 364 x 3
## # Groups:   from_id [198]
##    from_id                 to_id                   weight
##    <chr>                   <chr>                    <int>
##  1 E000145-S012650-T000000 E022443-S042999-T000000      1
##  2 E000189-S014115-T000000 E004830-S019312-T000000      4
##  3 E000189-S014115-T000000 E006871-S022202-T000000      1
##  4 E000189-S014115-T000000 E022443-S042999-T000000      1
##  5 E000312-S012741-T000000 E022443-S042999-T000000      2
##  6 E000393-S036175-T000000 E001993-S018912-T000000      1
##  7 E000520-S001769-T000000 E003476-S051213-T000000      1
##  8 E000520-S001769-T000000 E022443-S042999-T000000      1
##  9 E000799-S042396-T000000 E022443-S042999-T000000      1
## 10 E001346-S047404-T000000 E022443-S042999-T000000      1
## # ... with 354 more rows
```
…
```
## Warning in betweenness(graph = graph, v = V(graph), directed = directed, :
## 'nobigint' is deprecated since igraph 1.3 and will be removed in igraph 1.4
```
This new table can be sorted, totals counted, and so forth:


```r
network_metrics_df %>% arrange(desc(degree))
```

```
## # A tibble: 248 x 3
##    name                    degree between
##    <chr>                    <dbl>   <dbl>
##  1 E004830-S019312-T000000    604   8048.
##  2 E022443-S042999-T000000    270  13404.
##  3 E600059-S012260-T000000    161   3223.
##  4 E013473                    150    235 
##  5 E004654-S006979-T000000     91  11774.
##  6 E001993-S018912-T000000     72   6663.
##  7 E903376-S024822-T000000     57   1623 
##  8 E008063                     51      0 
##  9 E002620-S051125-T000000     47      0 
## 10 E906453-S026312-T000000     47      0 
## # ... with 238 more rows
```
…
```r
node_attributes
```

```
## # A tibble: 248 x 13
##    name     main_~1 all_n~2 links birth~3 death~4 gender roles~5 wikid~6 occup~7
##    <chr>    <chr>   <chr>   <chr>   <dbl>   <dbl> <chr>  <chr>   <chr>   <chr>  
##  1 E006019~ Dr. Ra~ Dr. Ra~ http~    1617    1688 male   theolo~ http:/~ theolo~
##  2 E011771~ Hyde, ~ Edward~ http~    1609    1674 male   judge;~ http:/~ judge;~
##  3 E015103~ Sir Ph~ Sir Ph~ http~    1607    1678 male   politi~ http:/~ politi~
##  4 E020134~ Taylor~ Silas ~ http~    1624    1678 male   compos~ http:/~ compos~
##  5 E014743~ Sir Ed~ Sir Ed~ http~    1608    1654 male   econom~ http:/~ econom~
##  6 E020485~ Sir Th~ Sir Th~ http~    1612    1685 male   naval ~ http:/~ naval ~
##  7 E004654~ Charle~ Charle~ http~    1630    1685 male   sovere~ http:/~ sovere~
##  8 E007992~ Heneag~ Heneag~ http~    1628    1689 male   diplom~ http:/~ diplom~
##  9 E007902~ John F~ John F~ http~    1625    1686 male   priest  http:/~ priest 
## 10 S035587  Philad~ Philad~ http~    1612    1665 female politi~ http:/~ politi~
## # ... with 238 more rows, 3 more variables: place_of_birth <chr>,
## #   place_of_death <chr>, politician <chr>, and abbreviated variable names
## #   1: main_name, 2: all_names, 3: birth_year, 4: death_year, 5: roles_titles,
## #   6: wikidata_item, 7: occupations
```
…
This new table can be outputted as a dataframe, as above. Here we use this to calculate the highest-degree nodes from the 'polticians network', keep their real names, and sort in descending order of degree:


```r
sample_tbl_graph %>% 
  left_join(node_attributes, by = 'name') %>% # first join the attributes table again
  filter(str_detect(occupations, "politician")) %>% # returns any row containing the string 'politician'
  mutate(degree = centrality_degree(weights = weight, mode = 'all'))  %>%   # calculate network metrics on this new subset of the data.
as_tibble() %>% 
  arrange(desc(degree)) %>% select(name, main_name, degree)
```

```
## # A tibble: 94 x 3
##    name                    main_name                                      degree
##    <chr>                   <chr>                                           <dbl>
##  1 E022443-S042999-T000000 Williamson, Joseph (Sir)                          174
##  2 E001993-S018912-T000000 Henry Bennet, Earl of Arlington                    54
##  3 E004654-S006979-T000000 Charles II, King of England, Scotland, and Ir~     53
##  4 E002620-S051125-T000000 William Blathwaite                                 47
##  5 E002622-S014197-T000000 Edward Conway, Earl of Conway                      30
##  6 S016294                 Francis, Lord Aungier                              28
##  7 E903376-S024822-T000000 Witt, Johan de                                     28
##  8 S047442                 Thomas Belasyse, Earl of Fauconberg                26
##  9 E921955-S041743-T000000 Sir George Rawdon                                  25
## 10 E021031-S049939-T000000 Van Beuningen                                      21
## # ... with 84 more rows
```
…
