Appendix and extra materials | Applying Network Analysis to Humanities
…
## Warning in betweenness(graph = graph, v = V(graph), directed = directed, :
## 'nobigint' is deprecated since igraph 1.3 and will be removed in igraph 1.4

g %>% as_tibble() 

## # A tibble: 1,285 × 7
##    name                   artist_name     genres in_de…¹ out_d…² total…³ between
##    <chr>                  <chr>           <list>   <dbl>   <dbl>   <dbl>   <dbl>
##  1 0sHeX8oQ6o7xic3wMf4NBU Supergrass      <chr>       20      33      53  21170.
##  2 3mbVe260Kgvs1P8YFcCyY7 The Seahorses   <chr>       20      30      50    604.
##  3 3s398TKZNahAURRacx7oIT Ian Brown       <chr>       20      30      50   1294.
##  4 5vIOGcdmx1eIkq3ZtuS12U Ocean Colour S… <chr>       20      29      49    591.
##  5 5fScAXreYFnuqwOgBsJgSd The Charlatans  <chr>       20      29      49    690.
##  6 2wrhBKGC3DTNNNDRJPaxW6 Sebadoh         <chr>       20      29      49   8797.
##  7 0vBDEQ1aLZpe4zgn2fPH6Z Cast            <chr>       20      28      48    800.
##  8 4oV5EVJ0XFWsJKoOvdRPvl Guided By Voic… <chr>       20      28      48   6225.
##  9 0LVrQUinPUBFvVD5pLqmWY Doves           <chr>       20      26      46  22570.
## 10 0WY2ddzQUF9eh16GiqrElA Pale Saints     <chr>       20      26      46   2769.
## # … with 1,275 more rows, and abbreviated variable names ¹​in_degree,
## #   ²​out_degree, ³​total_degree
…
