Week 6, Class 1: Asking and Answering Questions with Networks | Applying Network Analysis to Humanities
…
This shows that many of these accounts were retweeted consistently, but that some (becksk and MorabitoCM) had a single viral tweet, accounting for their high in-degree.

df %>% arrange(desc(outdegree)) %>% as_tibble() %>%
  left_join(user_info, by = c('name' = 'user_screen_name'))

## # A tibble: 252,296 × 9
##    name          indeg…¹ outde…² max_f…³ max_f…⁴ date_…⁵ max_f…⁶ max_f…⁷ date_…⁸
##    <chr>           <dbl>   <dbl>   <int>   <int> <chr>     <int>   <int> <chr>  
##  1 kaydnan             0    7524     173     136 Wed Ma…     173     136 Wed Ma…
##  2 Irishprolifer    1631    4707    7930    7087 Wed No…    7930    7087 Wed No…
##  3 mobyrne100       1100    3809    2498    1050 Sat Ju…    2498    1050 Sat Ju…
##  4 MaryOGrady8         6    3785     183     863 Wed Ja…     183     863 Wed Ja…
##  5 christi85573…      54    3125    5003    2432 Tue Ju…    5003    2432 Tue Ju…
##  6 Declan1497          3    3042    2390    1110 Sun Ma…    2390    1110 Sun Ma…
##  7 DunL4Choice       943    2921     911    1434 Sat Se…     911    1434 Sat Se…
##  8 BernadetteCo…       4    2641     231     189 Sun Fe…     231     189 Sun Fe…
##  9 EmmaMurphy12…    3607    2439    3932    3149 Fri Au…    3932    3149 Fri Au…
## 10 Paul71           1843    2066    3894    1566 Thu Ma…    3894    1566 Thu Ma…
## # … with 252,286 more rows, and abbreviated variable names ¹​indegree,
## #   ²​outdegree, ³​max_friends.x, ⁴​max_followers.x, ⁵​date_created.x,
## #   ⁶​max_friends.y, ⁷​max_followers.y, ⁸​date_created.y
…
